<?xml version="1.0" encoding="utf-8"?>
<!-- Generator: Adobe Illustrator 16.0.0, SVG Export Plug-In . SVG Version: 6.00 Build 0)  -->
<!DOCTYPE svg PUBLIC "-//W3C//DTD SVG 1.1//EN" "http://www.w3.org/Graphics/SVG/1.1/DTD/svg11.dtd">
<svg version="1.1" id="Vrstva_1" xmlns="http://www.w3.org/2000/svg" xmlns:xlink="http://www.w3.org/1999/xlink" x="0px" y="0px"
	 width="10px" height="5px" viewBox="0 0 10 5" enable-background="new 0 0 10 5" xml:space="preserve">
<image overflow="visible" width="10" height="5" xlink:href="data:image/jpeg;base64,/9j/4AAQSkZJRgABAgEASABIAAD/7AARRHVja3kAAQAEAAAAHgAA/+4AIUFkb2JlAGTAAAAAAQMA
EAMCAwYAAAF9AAABiwAAAcj/2wCEABALCwsMCxAMDBAXDw0PFxsUEBAUGx8XFxcXFx8eFxoaGhoX
Hh4jJSclIx4vLzMzLy9AQEBAQEBAQEBAQEBAQEABEQ8PERMRFRISFRQRFBEUGhQWFhQaJhoaHBoa
JjAjHh4eHiMwKy4nJycuKzU1MDA1NUBAP0BAQEBAQEBAQEBAQP/CABEIAAUACgMBIgACEQEDEQH/
xABxAAEBAAAAAAAAAAAAAAAAAAAABQEBAAAAAAAAAAAAAAAAAAAAABAAAwEAAAAAAAAAAAAAAAAA
AAEFJBEAAQIEBAcAAAAAAAAAAAAAAgERACEDMzFREqJD0wQURGQFEgEAAAAAAAAAAAAAAAAAAAAA
/9oADAMBAAIRAxEAAACtZD//2gAIAQIAAQUAP//aAAgBAwABBQA//9oACAEBAAEFALSbp4j/2gAI
AQICBj8Af//aAAgBAwIGPwB//9oACAEBAQY/AHol9YaaN3A9KNQqSz4akQsuelFRsJx5Vj2bfM3x
/9k=" transform="matrix(0.9999 0 0 0.9999 4.882813e-004 4.882813e-004)">
</image>
</svg>
