<?xml version="1.0" encoding="utf-8"?>
<!-- Generator: Adobe Illustrator 16.0.0, SVG Export Plug-In . SVG Version: 6.00 Build 0)  -->
<!DOCTYPE svg PUBLIC "-//W3C//DTD SVG 1.1//EN" "http://www.w3.org/Graphics/SVG/1.1/DTD/svg11.dtd">
<svg version="1.1" id="Vrstva_1" xmlns="http://www.w3.org/2000/svg" xmlns:xlink="http://www.w3.org/1999/xlink" x="0px" y="0px"
	 width="21px" height="21px" viewBox="0 0 21 21" enable-background="new 0 0 21 21" xml:space="preserve">
<g>
	<g>
		<path fill="#8B8C8A" d="M18.135,2.865c-3.167-3.167-8.321-3.167-11.489,0C3.959,5.553,3.552,9.549,5.424,12.67
			c0,0,0.135,0.225-0.047,0.406c-1.036,1.037-4.145,4.145-4.145,4.145c-0.825,0.824-1.021,1.979-0.29,2.709l0.126,0.127
			c0.731,0.732,1.886,0.535,2.71-0.289c0,0,3.102-3.104,4.136-4.137c0.19-0.189,0.416-0.055,0.416-0.055
			c3.121,1.871,7.117,1.465,9.804-1.223C21.302,11.188,21.302,6.033,18.135,2.865z M16.635,12.854c-2.34,2.34-6.148,2.34-8.489,0
			c-2.34-2.339-2.34-6.147,0-8.487c2.341-2.34,6.149-2.34,8.489,0C18.977,6.705,18.977,10.514,16.635,12.854z M14.811,4.158
			c-2.68-1.134-5.784,0.124-6.917,2.804C7.712,7.389,7.912,7.881,8.338,8.061c0.106,0.045,0.217,0.066,0.326,0.066
			c0.326,0,0.637-0.192,0.772-0.512c0.773-1.829,2.891-2.687,4.72-1.914c0.427,0.181,0.918-0.019,1.099-0.445
			C15.438,4.83,15.236,4.338,14.811,4.158z"/>
	</g>
</g>
</svg>
