<?xml version="1.0" encoding="utf-8"?>
<!-- Generator: Adobe Illustrator 16.0.0, SVG Export Plug-In . SVG Version: 6.00 Build 0)  -->
<!DOCTYPE svg PUBLIC "-//W3C//DTD SVG 1.1//EN" "http://www.w3.org/Graphics/SVG/1.1/DTD/svg11.dtd">
<svg version="1.1" id="Vrstva_1" xmlns="http://www.w3.org/2000/svg" xmlns:xlink="http://www.w3.org/1999/xlink" x="0px" y="0px"
	 width="18px" height="19px" viewBox="0 0 18 19" enable-background="new 0 0 18 19" xml:space="preserve">
<path d="M6.943,11.589c1.584,1.576,3.417,3.081,4.138,2.354c1.029-1.04,1.664-1.945,3.951-0.117c2.286,1.828,0.54,3.059-0.458,4.066
	c-1.151,1.163-5.466,0.081-9.742-4.171C0.557,9.468-0.555,5.153,0.597,3.99c0.999-1.008,2.213-2.767,4.054-0.488
	c1.841,2.276,0.943,2.92-0.087,3.96C3.844,8.188,5.359,10.014,6.943,11.589z M9.24,4.073c0,0-0.478-0.075-0.813,0.261
	C8.083,4.679,8.068,5.273,8.431,5.637c0.214,0.215,0.517,0.261,0.517,0.261c0.59,0.111,1.478,0.298,2.424,1.246
	c0.945,0.946,1.132,1.837,1.242,2.427c0,0,0.046,0.304,0.26,0.519c0.363,0.363,0.957,0.349,1.301,0.003
	c0.334-0.335,0.26-0.813,0.26-0.813c-0.188-1.196-0.766-2.446-1.76-3.441C11.681,4.841,10.435,4.261,9.24,4.073z M13.722,4.788
	c1.732,1.736,2.472,3.706,2.23,5.304c0,0-0.083,0.506,0.246,0.836c0.371,0.371,0.959,0.35,1.307,0.003
	c0.223-0.224,0.271-0.588,0.271-0.588c0.199-1.38-0.051-4.156-2.751-6.861s-5.47-2.956-6.848-2.757c0,0-0.363,0.049-0.586,0.272
	C7.244,1.345,7.223,1.935,7.594,2.306c0.33,0.33,0.834,0.246,0.834,0.246C10.022,2.312,11.989,3.051,13.722,4.788z"/>
</svg>
