<?xml version="1.0" encoding="utf-8"?>
<!-- Generator: Adobe Illustrator 16.0.0, SVG Export Plug-In . SVG Version: 6.00 Build 0)  -->
<!DOCTYPE svg PUBLIC "-//W3C//DTD SVG 1.1//EN" "http://www.w3.org/Graphics/SVG/1.1/DTD/svg11.dtd">
<svg version="1.1" id="Vrstva_1" xmlns="http://www.w3.org/2000/svg" xmlns:xlink="http://www.w3.org/1999/xlink" x="0px" y="0px"
	 width="45px" height="57px" viewBox="0 0 45 57" enable-background="new 0 0 45 57" xml:space="preserve">
<path fill="#FFFFFF" d="M37.211,30.846l-0.404,1.199l-16.014-5.443c-0.069,0.007-0.139,0.013-0.208,0.013
	c-0.07,0-0.14-0.013-0.209-0.013L4.35,32.046l-0.404-1.2l14.522-4.933c-0.038-0.025-0.082-0.05-0.12-0.075
	c-0.859-0.688-1.353-1.705-1.353-2.805c0-0.518,0.423-0.947,0.947-0.947s0.948,0.43,0.948,0.947c0,0.519,0.233,0.998,0.639,1.32
	c0.41,0.328,0.929,0.442,1.46,0.322c0.6-0.139,1.093-0.632,1.231-1.231c0.102-0.467,0.025-0.935-0.221-1.32
	c-0.247-0.379-0.645-0.65-1.087-0.738c-0.739-0.152-1.283-0.802-1.283-1.548v-2.146c0.304,0.069,0.619,0.107,0.948,0.107
	c0.328,0,0.645-0.038,0.948-0.107v1.894c0.847,0.228,1.586,0.771,2.066,1.51c0.523,0.821,0.694,1.807,0.474,2.772
	c-0.19,0.834-0.683,1.561-1.353,2.053L37.211,30.846z M41.124,35.172v19.899c0,1.047-0.85,1.895-1.896,1.895H1.931
	c-1.048,0-1.896-0.848-1.896-1.895V35.172c0-1.046,0.849-1.894,1.896-1.894h37.297C40.274,33.278,41.124,34.126,41.124,35.172z
	 M8.137,39.112c0-0.528-0.43-0.957-0.959-0.957h-0.02c-0.529,0-0.959,0.429-0.959,0.957v12.019c0,0.529,0.43,0.958,0.959,0.958h0.02
	c0.529,0,0.959-0.429,0.959-0.958V39.112z M17.077,39.112c0-0.528-0.43-0.957-0.959-0.957H16.1c-0.53,0-0.959,0.429-0.959,0.957
	v12.019c0,0.529,0.429,0.958,0.959,0.958h0.019c0.529,0,0.959-0.429,0.959-0.958V39.112z M26.018,39.112
	c0-0.528-0.429-0.957-0.958-0.957h-0.02c-0.529,0-0.959,0.429-0.959,0.957v12.019c0,0.529,0.43,0.958,0.959,0.958h0.02
	c0.529,0,0.958-0.429,0.958-0.958V39.112z M34.959,39.112c0-0.528-0.43-0.957-0.959-0.957h-0.02c-0.529,0-0.958,0.429-0.958,0.957
	v12.019c0,0.529,0.429,0.958,0.958,0.958H34c0.529,0,0.959-0.429,0.959-0.958V39.112z M23.724,13.391
	c0,1.735-1.407,3.143-3.145,3.143c-1.736,0-3.145-1.407-3.145-3.143c0-1.736,1.408-3.143,3.145-3.143
	C22.316,10.248,23.724,11.654,23.724,13.391z M22.151,13.391c0-0.868-0.704-1.571-1.572-1.571s-1.572,0.703-1.572,1.571
	c0,0.867,0.704,1.571,1.572,1.571S22.151,14.258,22.151,13.391z M37.765,5.571c-0.588,0.902-1.496,1.574-2.563,1.858l7.092,9.961
	l2.672-1.686L37.765,5.571z M29.912,4.631l-7.128,4.945c0.909,0.523,1.617,1.37,1.959,2.374l7.217-4.906
	C31.012,6.525,30.278,5.667,29.912,4.631z M37.214,3.177c0,1.735-1.408,3.143-3.145,3.143c-1.737,0-3.145-1.407-3.145-3.143
	s1.407-3.143,3.145-3.143C35.806,0.034,37.214,1.441,37.214,3.177z M35.642,3.177c0-0.867-0.704-1.571-1.572-1.571
	c-0.869,0-1.572,0.704-1.572,1.571c0,0.868,0.703,1.571,1.572,1.571C34.938,4.748,35.642,4.045,35.642,3.177z"/>
</svg>
